<svg width="1000" height="1000" viewBox="0 0 1000 1000" version="1.1" xmlns="http://www.w3.org/2000/svg" xmlns:xlink="http://www.w3.org/1999/xlink">
    <title>logo-ikbsp-white</title>
    <desc>Created using Figma</desc>
    <g id="Canvas" transform="translate(-1017 245)">
        <clipPath id="clip-0" clip-rule="evenodd">
            <path d="M 1017 -245L 2017 -245L 2017 755L 1017 755L 1017 -245Z" fill="#FFFFFF"/>
        </clipPath>
        <g id="logo-ikbsp-white" clip-path="url(#clip-0)">
            <g id="Shield">
                <g id="Union">
                    <g id="Union">
                        <use xlink:href="#path0_fill" transform="translate(1337.2 -120.794)" fill="#DE5144"/>
                    </g>
                </g>
                <g id="Intersect">
                    <use xlink:href="#path1_fill" transform="translate(1517 -120.794)" fill="#B54C42"/>
                </g>
                <g id="Subtract">
                    <use xlink:href="#path2_fill" transform="translate(1238 -223)" fill="#DE5144"/>
                </g>
            </g>
            <g id="&#208;&#152;&#208;&#154;&#208;&#145;&#208;&#161;&#208;&#159;">
                <use xlink:href="#path3_fill" transform="translate(1209 484)" fill="#FFFFFF"/>
            </g>
        </g>
    </g>
    <defs>
        <path id="path0_fill" fill-rule="evenodd" d="M 359.6 151.403L 359.6 154.655L 359.583 154.655C 358.29 279.981 282.313 384.932 179.8 414.872C 77.2865 384.932 1.31018 279.981 0.0167236 154.655L 0 154.655L 0 151.404L 0 55.5245L 15.3137 55.5245C 15.3156 55.5191 15.3173 55.5137 15.3191 55.5083C 16.4104 55.5191 17.504 55.5245 18.6 55.5245C 89.5212 55.5245 150.852 32.8855 180.115 0C 209.985 32.4488 272.154 54.9214 344.282 55.5125C 344.284 55.5165 344.285 55.5205 344.286 55.5245L 359.6 55.5245L 359.6 151.403Z"/>
        <path id="path1_fill" fill-rule="evenodd" d="M 0 414.872C 102.513 384.932 178.49 279.981 179.784 154.655L 179.8 154.655L 179.8 151.403L 179.8 55.5245L 164.487 55.5245L 164.483 55.5125C 92.3541 54.9214 30.1858 32.4488 0.315552 0C 0.210938 0.117607 0.105835 0.235085 0.000366211 0.352425L 0 414.872Z"/>
        <path id="path2_fill" fill-rule="evenodd" d="M 558 234.477L 558 229.547L 558 84.1823L 534.237 84.1823L 534.231 84.1642C 422.308 83.2679 325.839 49.1966 279.489 0C 234.081 49.8587 138.912 84.1823 28.8621 84.1823C 27.1615 84.1823 25.4645 84.1741 23.7711 84.1578L 23.7628 84.1823L 0 84.1823L 0 229.548L 0 234.477L 0.026001 234.477C 2.03308 424.487 119.927 583.606 278.999 629C 438.072 583.607 555.967 424.488 557.974 234.477L 558 234.477ZM 496 248.467L 496 244.586L 496 130.15L 477.518 130.15L 477.513 130.136C 390.461 129.43 315.431 102.608 279.38 63.8788C 244.082 103.108 170.122 130.121 84.5847 130.15L 84.3118 130.15C 83.0348 130.15 81.7604 130.143 80.4886 130.131L 80.4822 130.15L 62 130.15L 62 244.586L 62 248.467L 62.0203 248.467C 63.5813 398.05 155.277 523.313 279 559.049C 402.723 523.313 494.419 398.05 495.98 248.467L 496 248.467Z"/>
        <path id="path3_fill" d="M 17.4688 51L 45.4687 51L 45.4687 130C 45.4687 130.667 45.2687 133.6 44.8688 138.8L 44.4687 143.2L 45.2688 143.2C 45.9354 140.933 46.4021 139.467 46.6688 138.8C 48.2688 134.8 49.5354 131.867 50.4688 130L 88.4687 51L 115.469 51L 115.469 191L 87.4688 191L 87.4688 112C 87.4688 109.6 87.6021 106.667 87.8688 103.2L 88.4687 98.8L 87.6687 98.8C 87.0021 101.067 86.5354 102.533 86.2687 103.2C 85.3354 105.733 84.0687 108.667 82.4687 112L 44.4687 191L 17.4688 191L 17.4688 51ZM 233.5 193C 226.7 193 221.167 191.133 216.9 187.4C 212.633 183.667 209.833 178.867 208.5 173L 201.5 141C 200.433 136.333 198.767 133 196.5 131C 194.233 129 190.9 128 186.5 128L 177.5 128L 177.5 191L 149.5 191L 149.5 51L 177.5 51L 177.5 110L 183.5 110C 188.567 110 192.233 109 194.5 107C 196.767 104.867 198.433 101.2 199.5 96L 205.5 69C 206.833 63.1333 209.633 58.3333 213.9 54.6C 218.167 50.8667 223.7 49 230.5 49C 234.633 49 238.7 49.5333 242.7 50.6L 247.5 52L 245.5 68L 244.5 68C 244.5 68 244.1 67.8667 243.3 67.6C 241.7 67.2 240.767 67 240.5 67C 236.9 67 234.567 69.3333 233.5 74L 228.5 97C 226.633 104.733 222.633 110.533 216.5 114.4C 213.7 116.133 210.7 117.333 207.5 118C 210.833 118.533 214.167 119.8 217.5 121.8C 224.3 125.8 228.633 131.867 230.5 140L 236.5 168C 237.567 172.667 239.967 175 243.7 175L 246.3 174.6L 247.5 174L 248.5 174L 250.5 190L 246.1 191.6C 242.633 192.533 238.433 193 233.5 193ZM 272.547 51L 356.547 51L 356.547 69L 300.547 69L 300.547 105L 313.547 105C 331.68 105 345.214 108.867 354.147 116.6C 363.08 124.333 367.547 134.8 367.547 148C 367.547 176.667 349.547 191 313.547 191L 272.547 191L 272.547 51ZM 313.547 173C 322.614 173 329.214 171 333.347 167C 337.48 162.867 339.547 156.533 339.547 148C 339.547 139.467 337.48 133.2 333.347 129.2C 329.214 125.067 322.614 123 313.547 123L 300.547 123L 300.547 173L 313.547 173ZM 441.469 193C 423.335 193 409.469 187.2 399.869 175.6C 390.269 164 385.469 145.8 385.469 121C 385.469 96.3333 390.135 78.2 399.469 66.6C 408.935 54.8667 422.269 49 439.469 49C 449.602 49 458.669 50.8667 466.669 54.6C 470.269 56.0667 473.535 57.8667 476.469 60L 467.469 76L 465.469 76C 464.002 74.6667 461.869 73.2 459.069 71.6C 453.202 68.5333 447.335 67 441.469 67C 432.669 67 425.802 71.0667 420.869 79.2C 415.935 87.3333 413.469 101.267 413.469 121C 413.469 140.867 416.002 154.867 421.069 163C 426.269 171 433.735 175 443.469 175C 449.602 175 455.469 173.533 461.069 170.6C 464.002 168.867 466.135 167.333 467.469 166L 469.469 166L 478.469 182C 475.802 184.133 472.535 186 468.669 187.6C 460.935 191.2 451.869 193 441.469 193ZM 499.5 191L 499.5 51L 597.5 51L 597.5 191L 569.5 191L 569.5 69L 527.5 69L 527.5 191L 499.5 191Z"/>
    </defs>
</svg>
